import SPT2_Low from "SPT2_Mat.material"

material SPT_Highlands : SPT2_Low
{
	set_texture_alias Coverage 	Highlands_Coverage.jpg
	set_texture_alias SplatMap 	Highlands_Splat.dds
	set_texture_alias Splat1	herbe_3.jpg
	set_texture_alias Splat2	herbe_3.jpg
	set_texture_alias Splat3	herbe_5.jpg
	set_texture_alias Splat4	sand_025.jpg
	set_texture_alias Detail1	detail_splat1.png
	set_texture_alias Detail2	Detail3.jpg
}