material Material/TEXFACE/Ovendoor.png
{
	receive_shadows on
	technique
	{
		pass
		{
			ambient 0.500000 0.500000 0.500000 1.000000
			diffuse 0.800000 0.800000 0.800000 1.000000
			emissive 0.000000 0.000000 0.000000 1.000000
			texture_unit
			{
				texture Ovendoor.png
				colour_op modulate
			}
		}
	}
}
material Material/TEXFACE
{
	receive_shadows on
	technique
	{
		pass
		{
			ambient 0.500000 0.500000 0.500000 1.000000
			diffuse 0.800000 0.800000 0.800000 1.000000
			specular 0.500000 0.500000 0.500000 1.000000 12.500000
			emissive 0.000000 0.000000 0.000000 1.000000
		}
	}
}
material default.001/TEXFACE/bakery_food.png
{
	receive_shadows on
	technique
	{
		pass
		{
			ambient 0.500000 0.500000 0.500000 1.000000
			diffuse 0.800000 0.800000 0.800000 1.000000
			emissive 0.000000 0.000000 0.000000 1.000000
			texture_unit
			{
				texture bakery_food.png
				colour_op modulate
			}
		}
	}
}
material MDBakery/TEXFACE/Bakery_tools.png
{
	receive_shadows on
	technique
	{
		pass
		{
			ambient 0.500000 0.500000 0.500000 1.000000
			diffuse 0.800000 0.800000 0.800000 1.000000
			emissive 0.000000 0.000000 0.000000 1.000000
			texture_unit
			{
				texture Bakery_tools.png
				colour_op modulate
			}
		}
	}
}
material Material/TEXFACE/plank1.jpg
{
	receive_shadows on
	technique
	{
		pass
		{
			ambient 0.500000 0.500000 0.500000 1.000000
			diffuse 0.800000 0.800000 0.800000 1.000000
			emissive 0.000000 0.000000 0.000000 1.000000
			texture_unit
			{
				texture plank1.jpg
				colour_op modulate
			}
		}
	}
}
material Material/TEXFACE/greyroof.jpg
{
	receive_shadows on
	technique
	{
		pass
		{
			ambient 0.500000 0.500000 0.500000 1.000000
			diffuse 0.800000 0.800000 0.800000 1.000000
			emissive 0.000000 0.000000 0.000000 1.000000
			texture_unit
			{
				texture greyroof.jpg
				colour_op modulate
			}
		}
	}
}


//material Material/TEXFACE/window.png
//{
//	receive_shadows on
//	technique
//	{
//		pass
//		{
//			ambient 0.500000 0.500000 0.500000 1.000000
//			diffuse 0.800000 0.800000 0.800000 1.000000
//			emissive 0.000000 0.000000 0.000000 1.000000
//			texture_unit
//			{
//				texture window.png
//				colour_op modulate
//			}
//		}
//		pass
//		{
//			ambient 0.0 0.0 0.0
//			diffuse 0.0 0.0 0.0
//			specular 0.500000 0.500000 0.500000 1.000000 12.500000
//			scene_blend add
//		}
//	}
//}


material Material.001/TEXFACE/Table_blood.png
{
	receive_shadows on
	technique
	{
		pass
		{
			ambient 0.500000 0.500000 0.500000 1.000000
			diffuse 0.800000 0.800000 0.800000 1.000000
			emissive 0.000000 0.000000 0.000000 1.000000
			texture_unit
			{
				texture Table_blood.png
				colour_op modulate
			}
		}
	}
}


//material Material/TEXFACE/wood1.jpg
//{
//	receive_shadows on
//	technique
//	{
//		pass
//		{
//			ambient 0.500000 0.500000 0.500000 1.000000
//			diffuse 0.800000 0.800000 0.800000 1.000000
//			emissive 0.000000 0.000000 0.000000 1.000000
//			texture_unit
//			{
//				texture wood1.jpg
//				colour_op modulate
//			}
//		}
//		pass
//		{
//			ambient 0.0 0.0 0.0
//			diffuse 0.0 0.0 0.0
//			specular 0.500000 0.500000 0.500000 1.000000 12.500000
//			scene_blend add
//		}
//	}
//}


material Material/TEXFACE/fabric.png
{
	receive_shadows on
	technique
	{
		pass
		{
			ambient 0.500000 0.500000 0.500000 1.000000
			diffuse 0.800000 0.800000 0.800000 1.000000
			emissive 0.000000 0.000000 0.000000 1.000000
			texture_unit
			{
				texture fabric.png
				colour_op modulate
			}
		}
	}
}


//material Material/TEXFACE/Naamloos.png
//{
//	receive_shadows on
//	technique
//	{
//		pass
//		{
//			ambient 0.500000 0.500000 0.500000 1.000000
//			diffuse 0.800000 0.800000 0.800000 1.000000
//			emissive 0.000000 0.000000 0.000000 1.000000
//			texture_unit
//			{
//				texture Naamloos.png
//				colour_op modulate
//			}
//		}
//		pass
//		{
//			ambient 0.0 0.0 0.0
//			diffuse 0.0 0.0 0.0
//			specular 0.500000 0.500000 0.500000 1.000000 12.500000
//			scene_blend add
//		}
//	}
//}
