material Vaernhouse3/SOLID/TEX/tex_stone_01_tiled.jpg
{
	technique
	{
		pass
		{
			specular 0.500000 0.500000 0.500000 12.500000
			texture_unit
			{
				texture tex_stone_01_tiled.jpg
			}
		}
	}
}
material Vaernhouse3/SOLID/TEX/sign.jpg
{
	technique
	{
		pass
		{
			specular 0.500000 0.500000 0.500000 12.500000
			texture_unit
			{
				texture sign.jpg
			}
		}
	}
}
material Vaernhouse3/SOLID/TEX/housetrial.jpg
{
	technique
	{
		pass
		{
			specular 0.500000 0.500000 0.500000 12.500000
			texture_unit
			{
				texture housetrial.jpg
			}
		}
	}
}
material Vaernhouse3/SOLID/TEX/fabric.png
{
	technique
	{
		pass
		{
			specular 0.500000 0.500000 0.500000 12.500000
			texture_unit
			{
				texture fabric.png
			}
		}
	}
}
material Vaernhouse3/SOLID/TEX/plank1.jpg
{
	technique
	{
		pass
		{
			specular 0.500000 0.500000 0.500000 12.500000
			texture_unit
			{
				texture plank1.jpg
			}
		}
	}
}
material Vaernhouse3/SOLID/TEX/rooftiles3.bmp
{
	technique
	{
		pass
		{
			specular 0.500000 0.500000 0.500000 12.500000
			texture_unit
			{
				texture rooftiles3.bmp
			}
		}
	}
}
