material SPT2_4_Channel_Splat
{
	technique Low
	{
		scheme Low

		pass Splat0
		{
		
			vertex_program_ref SPT2_4_Channel_Splat_VS
			{
				param_named SplatScales float4 1 1 1 1
			}

			fragment_program_ref SPT2_4_Channel_Splat_PS
			{
			}

			texture_unit SplatMap
			{
				texture_alias SplatMap
				filtering bilinear
				tex_address_mode clamp
				tex_coord_set 0
			}

			texture_unit Splat1
			{
				texture_alias Splat1
				filtering trilinear
				tex_coord_set 1
			}
			texture_unit Splat2
			{
				texture_alias Splat2
				filtering trilinear
				tex_coord_set 2
			}
			texture_unit Splat3
			{
				texture_alias Splat3
				filtering trilinear
				tex_coord_set 3
			}
			texture_unit Splat4
			{
				texture_alias Splat4
				filtering trilinear
				tex_coord_set 4
			}
		}

		pass Lightmap
		{

			scene_blend modulate

			vertex_program_ref SPT2_ApplyLightmap_VS
			{
			}

			fragment_program_ref SPT2_ApplyLightmap_PS
			{
			}

			texture_unit Lightmap
			{
				texture_alias Lightmap
				filtering bilinear
				tex_address_mode clamp
				tex_coord_set 0
			}
		}
	}
}
			
			